885441 403959 525
794773 933489 525
441002 42451 449
271494 536111 470
509533 424605 444
962839 821873 525
870164 318047 525
499749 375442 449
611721 934974 525
952226 229054 525
529203 146040 470
295529 146535 443
792519 99438 509
648407 838235 525
262675 953939 525
558434 739427 509
849575 631141 525
945990 154101 525
325214 103561 443
765285 77325 509
942501 891787 507
717210 346237 509
495078 587008 470
105593 370978 443
455263 331557 449
640562 671533 442
957362 214411 525
579364 500182 470
464198 907344 525
546679 273146 470
65305 844133 525
963081 575353 525
960490 14724 525
97803 754666 509
880900 418197 525
744755 864913 525
823183 700610 504
655639 1199 509
641621 517554 509
868288 909748 445
349318 255760 441
765753 341002 509
737823 912756 525
66044 200349 383
961565 595079 525
232474 250207 381
842369 149417 525
842195 569367 525
469731 95647 449
84354 335602 443
917596 532615 525
978148 513055 525
114356 316090 443
578046 305231 470
740884 130874 509
574034 348915 470
854031 967049 507
566529 213073 470
838261 632486 525
573813 616162 447
301631 466605 449
96084 625253 470
836696 403599 509
332448 603614 470
253868 304433 407
192801 198592 360
861371 195801 525
34575 642540 509
688558 272689 509
499679 72442 449
94188 711694 509
794406 136551 509
919361 156815 525
968236 40519 525
883384 84147 525
941803 733294 525
967923 869648 507
566861 716701 509
410304 878566 525
739544 550056 509
289024 547137 470
851055 246942 525
890751 225655 525
938517 712481 525
618452 865352 525
995901 439798 525
607855 288580 470
472450 516587 470
692318 672344 442
734240 961483 525
831862 374728 509
86375 340080 443
642550 120953 509
510074 615593 470
660758 351557 509
886129 199627 525
254842 16997 443
767023 284204 509
122825 739596 509
231170 390134 441
833181 178764 509
348690 446831 449
855547 65214 525
105495 821160 509
153468 896871 525
731561 229401 509
47432 856813 525
601743 665014 509
954221 982013 458
560148 631422 509
713650 77592 509
27994 130489 354
665846 197679 509
635792 870409 525
603931 125510 470
410213 95979 449
388120 874350 525
121684 38160 354
634918 22688 509
204044 193958 360
752997 129914 509
502513 220806 449
762478 839644 525
64053 982484 525
712348 23890 509
570673 446294 470
650747 106431 509
876508 272546 525
73405 231557 443
75468 678351 509
315686 367310 441
457252 189078 449
64008 528102 470
489823 41292 449
625460 105824 470
733294 410283 509
209040 272770 443
375973 948331 525
767137 493058 509
879050 946135 507
963099 597446 525
177655 731589 509
705315 213296 509
804624 60871 509
826958 709049 468
165894 886492 525
169822 358941 443
555194 262865 470
122907 625782 470
966178 463800 525
697939 183312 509
13846 494536 449
714375 429817 509
943822 596758 525
917300 533306 525
962081 326575 525
680457 374501 509
407521 878352 525
689561 263122 509
160865 587832 470
724381 13041 509
480200 777598 509
82915 352235 443
774915 47917 509
570761 294528 470
141388 251795 443
799190 999429 525
505233 369336 449
639774 301862 509
706115 376650 509
618952 992903 525
935271 664533 525
895248 651247 525
138774 750382 509
325371 406866 441
784845 434549 509
869168 682448 525
84645 1599 351
623460 201652 470
732518 350646 509
167856 251046 443
233936 668362 509
469904 397042 449
744856 917948 525
706505 595750 509
917020 434537 525
33078 421808 449
914032 735922 525
595038 438543 470
809696 694363 504
743447 49053 509
173723 466986 449
66990 271820 443
735594 165347 509
468048 553201 470
927933 510936 525
952149 588676 525
633317 792184 504
73 926811 525
40801 518608 470
341777 327217 366
878431 489572 525
52279 848347 525
862685 917522 476
851879 435304 525
197134 575210 470
663842 87522 509
878129 760799 525
136862 15445 354
421336 995673 525
711475 437765 509
331536 3558 443
223897 14986 386
752169 791417 468
2473 862697 525
708588 554011 509
641794 102535 509
199712 124680 383
637912 680805 442
208160 916093 525
317107 293584 384
721987 191073 509
105048 498709 449
895420 967595 507
415967 658128 509
85297 22907 351
288059 958274 525
474983 838677 525
830831 121404 509
903202 268948 525
139902 685315 509
546168 856974 525
682396 676270 380
363912 120701 443
914216 161943 525
291934 892590 525
19477 44353 324
42639 215730 383
714077 272284 509
585479 330001 470
992480 384717 525
984025 595034 525
954049 890701 507
44045 887473 525
785525 735393 468
637112 687197 442
518506 746962 509
675434 946561 525
480945 671237 509
456593 390542 449
