1 346020 443
2 641612 509
3 469634 449
4 283299 443
5 578333 470
6 906852 525
7 949635 525
8 87054 351
9 932187 525
10 796241 509
11 548948 470
12 951194 525
13 464363 449
14 505626 449
15 777652 509
16 680301 509
17 602167 470
18 174719 383
19 770838 509
20 154340 375
21 419838 449
22 864440 525
23 375916 443
24 207460 383
25 833630 509
26 751978 509
27 163951 383
28 90835 351
29 686925 509
30 759049 509
31 264717 443
32 495826 449
33 800277 509
34 120174 354
35 599152 470
36 622923 470
37 845035 525
38 552755 470
39 913958 525
40 860801 525
41 316192 443
42 184233 383
43 90597 351
44 678746 509
45 327453 443
46 404186 443
47 349888 443
48 630736 509
49 409051 443
50 779469 509
51 17631 276
52 828368 509
53 25097 282
54 53058 340
55 128269 354
56 801015 509
57 136526 354
58 100910 351
59 461169 449
60 229608 386
61 548806 470
62 69453 340
63 972240 525
64 237100 443
65 830671 509
66 697566 509
67 594386 470
68 845899 525
69 297951 443
70 949336 525
71 848105 525
72 961727 525
73 455886 449
74 924430 525
75 492471 449
76 979794 525
77 739709 509
78 296240 443
79 434952 449
80 957594 525
81 539501 470
82 431219 449
83 972755 525
84 310142 443
85 675162 509
86 840834 525
87 209243 383
88 489903 449
89 242075 443
90 265925 443
91 533166 470
92 803927 509
93 427879 449
94 576545 470
95 687556 509
96 680998 509
97 58573 340
98 832626 509
99 737683 509
100 423448 449
101 263491 443
102 194905 383
103 808648 509
104 166528 383
105 112655 354
106 194816 383
107 105930 351
108 540866 470
109 872192 525
110 312371 443
111 280876 443
112 621187 470
113 825141 509
114 508362 449
115 528571 470
116 406260 443
117 53850 340
118 195020 383
119 51996 324
120 845317 525
121 942912 525
122 635238 509
123 977734 525
124 874614 525
125 232392 443
126 971367 525
127 128369 354
128 413761 449
129 726925 509
130 192602 383
131 958385 525
132 965945 525
133 77827 351
134 258979 443
135 412682 449
136 280993 443
137 360493 443
138 847118 525
139 871977 525
140 933539 525
141 590920 470
142 806970 509
143 397780 443
144 267974 443
145 130166 354
146 911052 525
147 130697 354
148 425571 449
149 350230 443
150 820441 509
151 207351 383
152 636448 509
153 988031 525
154 320502 443
155 679734 509
156 255829 443
157 409962 443
158 874542 525
159 808908 509
160 805184 509
161 773483 509
162 577577 470
163 230364 386
164 9251 262
165 77779 351
166 718772 509
167 950906 525
168 43344 324
169 90942 351
170 170846 383
171 851023 525
172 291017 443
173 152451 375
174 192991 383
175 59672 340
176 296786 443
177 426727 449
178 485739 449
179 843800 525
180 845841 525
181 263043 443
182 545163 470
183 822311 509
184 592297 470
185 749618 509
186 550511 470
187 331909 443
188 200795 383
189 712348 509
190 885175 525
191 255948 443
192 905219 525
193 823940 509
194 829102 509
195 114296 354
196 484234 449
197 928200 525
198 19207 279
199 13196 268
200 646501 509
201 878386 525
202 350916 443
203 561920 470
204 994656 525
205 191225 383
206 174288 383
207 810818 509
208 395323 443
209 342752 443
210 822875 509
211 314862 443
212 372238 443
213 729579 509
214 348015 443
215 585993 470
216 401512 443
217 599615 470
218 61032 340
219 593758 470
220 885061 525
221 796130 509
222 857351 525
223 494936 449
224 992617 525
225 762348 509
226 626613 509
227 385313 443
228 619053 470
229 236175 443
230 813387 509
231 304089 443
232 671417 509
233 666687 509
234 207977 383
235 773761 509
236 579616 470
237 728497 509
238 661930 509
239 556949 470
240 113163 354
241 180898 383
242 794995 509
243 873642 525
244 252977 443
245 211532 383
246 949919 525
247 208436 383
248 798262 509
249 178629 383
250 289006 443
251 666831 509
252 167657 383
253 58834 340
254 18884 279
255 191881 383
256 197745 383
257 850846 525
258 286874 443
259 145340 375
260 729060 509
261 926718 525
262 836043 509
263 355023 443
264 842111 525
265 341185 443
266 320385 443
267 64311 340
268 841950 525
269 125579 354
270 979600 525
271 24718 282
272 875517 525
273 992796 525
274 937971 525
275 435330 449
276 387914 443
277 192308 383
278 61573 340
279 11436 268
280 45815 324
281 84871 351
282 754304 509
283 745882 509
284 277472 443
285 43256 324
286 860264 525
287 873432 525
288 643911 509
289 344039 443
290 839627 525
291 741590 509
292 651071 509
293 833693 509
294 106265 354
295 108188 354
296 394824 443
297 4592 238
298 907621 525
299 629710 509
300 523766 470
